C:\Users\alexy\Desktop\revJava\src\main\java\com\revature\models\CheckingAccount.java
C:\Users\alexy\Desktop\revJava\src\main\java\com\revature\controllers\AccountHolderController.java
C:\Users\alexy\Desktop\revJava\src\main\java\com\revature\exceptions\NoSQLResultsException.java
C:\Users\alexy\Desktop\revJava\src\main\java\com\revature\models\AccountHolder.java
C:\Users\alexy\Desktop\revJava\src\main\java\com\revature\controllers\AccountController.java
C:\Users\alexy\Desktop\revJava\src\main\java\com\revature\endpoints\EndPointInit.java
C:\Users\alexy\Desktop\revJava\src\main\java\com\revature\models\Account.java
C:\Users\alexy\Desktop\revJava\src\main\java\com\revature\dao\AccountHolderDAO.java
C:\Users\alexy\Desktop\revJava\src\main\java\com\revature\dao\DAO.java
C:\Users\alexy\Desktop\revJava\src\main\java\com\revature\utils\ConnectionFactory.java
C:\Users\alexy\Desktop\revJava\src\main\java\com\revature\dao\AccountDAO.java
C:\Users\alexy\Desktop\revJava\src\main\java\com\revature\launcher\launch.java
C:\Users\alexy\Desktop\revJava\src\main\java\com\revature\models\SavingsAccount.java
